Introduction to fido::Pibble • fido
…
priors <- to_clr(priors)  
summary(priors, pars="Lambda", gather_prob=TRUE, as_factor=TRUE, use_names=TRUE)  
#> $Lambda
#> # A tibble: 784 x 9
#>    Parameter coord covariate         val .lower .upper .width .point .interval
#>    <chr>     <int>     <int>       <dbl>  <dbl>  <dbl>  <dbl> <chr>  <chr>    
#>  1 Lambda        1         1  0.0509     -0.528  0.596    0.5 mean   qi       
#>  2 Lambda        1         2  0.00199    -0.567  0.575    0.5 mean   qi       
#>  3 Lambda        1         3 -0.0373     -0.620  0.532    0.5 mean   qi       
#>  4 Lambda        1         4 -0.00205    -0.554  0.549    0.5 mean   qi       
#>  5 Lambda        2         1  0.00991    -0.564  0.535    0.5 mean   qi       
#>  6 Lambda        2         2 -0.00000782 -0.572  0.580    0.5 mean   qi       
#>  7 Lambda        2         3 -0.0247     -0.570  0.518    0.5 mean   qi       
#>  8 Lambda        2         4  0.0165     -0.536  0.589    0.5 mean   qi       
#>  9 Lambda        3         1  0.0138     -0.584  0.620    0.5 mean   qi       
#> 10 Lambda        3         2 -0.00502    -0.542  0.581    0.5 mean   qi       
#> # ... with 774 more rows
…
